[gd_scene load_steps=4 format=2]

[ext_resource path="res://scripts/scaling.gd" type="Script" id=1]
[ext_resource path="res://graphics/borders/prideborder.png" type="Texture" id=2]
[ext_resource path="res://maps/map01.tscn" type="PackedScene" id=3]

[node name="Control" type="Control"]
anchor_right = 1.0
anchor_bottom = 1.0
rect_pivot_offset = Vector2( 136, 120 )
size_flags_horizontal = 2
size_flags_vertical = 2
script = ExtResource( 1 )

[node name="TextureRect" type="TextureRect" parent="."]
anchor_right = 1.0
anchor_bottom = 1.0
texture = ExtResource( 2 )
expand = true

[node name="ViewportContainer" type="ViewportContainer" parent="."]
anchor_left = 0.5
anchor_top = 0.5
anchor_right = 0.5
anchor_bottom = 0.5
margin_left = -136.0
margin_top = -120.0
margin_right = 136.0
margin_bottom = 120.0
rect_pivot_offset = Vector2( 136, 120 )

[node name="Viewport" type="Viewport" parent="ViewportContainer"]
size = Vector2( 272, 240 )
handle_input_locally = false
render_target_update_mode = 3

[node name="Map" parent="ViewportContainer/Viewport" instance=ExtResource( 3 )]
