[gd_scene load_steps=8 format=2]

[ext_resource path="res://graphics/enemies/enemy_explosion.png" type="Texture" id=1]
[ext_resource path="res://objects/enemy/enemy_explosion.gd" type="Script" id=2]

[sub_resource type="AtlasTexture" id=1]
atlas = ExtResource( 1 )
region = Rect2( 0, 0, 16, 16 )

[sub_resource type="AtlasTexture" id=2]
atlas = ExtResource( 1 )
region = Rect2( 16, 0, 16, 16 )

[sub_resource type="AtlasTexture" id=3]
atlas = ExtResource( 1 )
region = Rect2( 32, 0, 16, 16 )

[sub_resource type="AtlasTexture" id=4]
atlas = ExtResource( 1 )
region = Rect2( 48, 0, 16, 16 )

[sub_resource type="SpriteFrames" id=5]
animations = [ {
"frames": [ SubResource( 1 ), SubResource( 2 ), SubResource( 3 ), SubResource( 4 ) ],
"loop": true,
"name": "default",
"speed": 20.0
} ]

[node name="EnemyExplosion" type="AnimatedSprite"]
frames = SubResource( 5 )
script = ExtResource( 2 )

[connection signal="animation_finished" from="." to="." method="_on_EnemyExplosion_animation_finished"]
